FIBO/fibo.vcd
$date
	Sat Jun  5 01:46:11 2021
$end
$version
	Icarus Verilog
$end
$timescale
	1s
$end
$scope module test $end
$scope module top $end
$var wire 1 ! clk $end
$var wire 1 " rst $end
$var wire 1 # we $end
$var wire 16 $ wd [15:0] $end
$var wire 2 % wad [1:0] $end
$var wire 6 & pca [5:0] $end
$var wire 3 ' op [2:0] $end
$var wire 11 ( o [10:0] $end
$var wire 1 ) halt $end
$var wire 2 * brad [1:0] $end
$var wire 16 + b [15:0] $end
$var wire 2 , arad [1:0] $end
$var wire 16 - a [15:0] $end
$scope module alu $end
$var wire 3 . op [2:0] $end
$var wire 16 / b [15:0] $end
$var wire 16 0 a [15:0] $end
$var reg 16 1 result [15:0] $end
$upscope $end
$scope module dec $end
$var wire 1 # we $end
$var wire 2 2 wadr [1:0] $end
$var wire 3 3 op [2:0] $end
$var wire 11 4 o [10:0] $end
$var wire 1 ) halt $end
$var wire 2 5 bradr [1:0] $end
$var wire 2 6 aradr [1:0] $end
$upscope $end
$scope module imem $end
$var wire 6 7 pc [5:0] $end
$var reg 11 8 o [10:0] $end
$upscope $end
$scope module pc $end
$var wire 1 ! clk $end
$var wire 1 ) halt $end
$var wire 1 " rst $end
$var reg 6 9 pc [5:0] $end
$upscope $end
$scope module rega $end
$var wire 2 : arad [1:0] $end
$var wire 2 ; brad [1:0] $end
$var wire 1 ! clk $end
$var wire 1 # en $end
$var wire 16 < in [15:0] $end
$var wire 16 = outa [15:0] $end
$var wire 16 > outb [15:0] $end
$var wire 1 " rst $end
$var wire 2 ? wad [1:0] $end
$upscope $end
$upscope $end
$upscope $end
$enddefinitions $end
#0
$dumpvars
b0 ?
bx >
bx =
bx <
b0 ;
b0 :
b0 9
b0 8
b0 7
b0 6
b0 5
b0 4
b0 3
b0 2
bx 1
bx 0
bx /
b0 .
bx -
b0 ,
bx +
b0 *
0)
b0 (
b0 '
b0 &
b0 %
bx $
0#
1"
0!
$end
#5
b0 $
b0 1
b0 <
b0 -
b0 0
b0 =
b0 +
b0 /
b0 >
1!
#10
0!
#15
1!
#20
0!
0"
#25
b1 $
b1 1
b1 <
1#
b10 %
b10 2
b10 ?
b1 +
b1 /
b1 >
b1 *
b1 5
b1 ;
b1100000001 (
b1100000001 4
b1100000001 8
b1 &
b1 7
b1 9
1!
#30
0!
#35
b0 %
b0 2
b0 ?
b111 '
b111 .
b111 3
b0 +
b0 /
b0 >
b0 *
b0 5
b0 ;
b1 -
b1 0
b1 =
b1 ,
b1 6
b1 :
b1001110100 (
b1001110100 4
b1001110100 8
b10 &
b10 7
b10 9
1!
#40
0!
#45
b1 %
b1 2
b1 ?
b10 ,
b10 6
b10 :
b1011111000 (
b1011111000 4
b1011111000 8
b11 &
b11 7
b11 9
b1 +
b1 /
b1 >
1!
#50
0!
#55
b10 $
b10 1
b10 <
b10 %
b10 2
b10 ?
b0 '
b0 .
b0 3
b1 *
b1 5
b1 ;
b0 ,
b0 6
b0 :
b1100000001 (
b1100000001 4
b1100000001 8
b100 &
b100 7
b100 9
1!
#60
0!
#65
b1 $
b1 1
b1 <
b0 %
b0 2
b0 ?
b111 '
b111 .
b111 3
b0 *
b0 5
b0 ;
b1 ,
b1 6
b1 :
b1001110100 (
b1001110100 4
b1001110100 8
b101 &
b101 7
b101 9
1!
#70
0!
#75
b10 $
b10 1
b10 <
b1 %
b1 2
b1 ?
b10 -
b10 0
b10 =
b10 ,
b10 6
b10 :
b1011111000 (
b1011111000 4
b1011111000 8
b110 &
b110 7
b110 9
1!
#80
0!
#85
b11 $
b11 1
b11 <
b10 %
b10 2
b10 ?
b0 '
b0 .
b0 3
b10 +
b10 /
b10 >
b1 *
b1 5
b1 ;
b1 -
b1 0
b1 =
b0 ,
b0 6
b0 :
b1100000001 (
b1100000001 4
b1100000001 8
b111 &
b111 7
b111 9
1!
#90
0!
#95
b10 $
b10 1
b10 <
b0 %
b0 2
b0 ?
b111 '
b111 .
b111 3
b1 +
b1 /
b1 >
b0 *
b0 5
b0 ;
b10 -
b10 0
b10 =
b1 ,
b1 6
b1 :
b1001110100 (
b1001110100 4
b1001110100 8
b1000 &
b1000 7
b1000 9
1!
#100
0!
#105
b11 $
b11 1
b11 <
b1 %
b1 2
b1 ?
b11 -
b11 0
b11 =
b10 ,
b10 6
b10 :
b1011111000 (
b1011111000 4
b1011111000 8
b1001 &
b1001 7
b1001 9
b10 +
b10 /
b10 >
1!
#110
0!
#115
b101 $
b101 1
b101 <
b10 %
b10 2
b10 ?
b0 '
b0 .
b0 3
b11 +
b11 /
b11 >
b1 *
b1 5
b1 ;
b10 -
b10 0
b10 =
b0 ,
b0 6
b0 :
b1100000001 (
b1100000001 4
b1100000001 8
b1010 &
b1010 7
b1010 9
1!
#120
0!
#125
b11 $
b11 1
b11 <
b0 %
b0 2
b0 ?
b111 '
b111 .
b111 3
b10 +
b10 /
b10 >
b0 *
b0 5
b0 ;
b11 -
b11 0
b11 =
b1 ,
b1 6
b1 :
b1001110100 (
b1001110100 4
b1001110100 8
b1011 &
b1011 7
b1011 9
1!
#130
0!
#135
b101 $
b101 1
b101 <
b1 %
b1 2
b1 ?
b101 -
b101 0
b101 =
b10 ,
b10 6
b10 :
b1011111000 (
b1011111000 4
b1011111000 8
b1100 &
b1100 7
b1100 9
b11 +
b11 /
b11 >
1!
#140
0!
#145
b1000 $
b1000 1
b1000 <
b10 %
b10 2
b10 ?
b0 '
b0 .
b0 3
b101 +
b101 /
b101 >
b1 *
b1 5
b1 ;
b11 -
b11 0
b11 =
b0 ,
b0 6
b0 :
b1100000001 (
b1100000001 4
b1100000001 8
b1101 &
b1101 7
b1101 9
1!
#150
0!
#155
b101 $
b101 1
b101 <
b0 %
b0 2
b0 ?
b111 '
b111 .
b111 3
b11 +
b11 /
b11 >
b0 *
b0 5
b0 ;
b101 -
b101 0
b101 =
b1 ,
b1 6
b1 :
b1001110100 (
b1001110100 4
b1001110100 8
b1110 &
b1110 7
b1110 9
1!
#160
0!
#165
b1000 $
b1000 1
b1000 <
b1 %
b1 2
b1 ?
b1000 -
b1000 0
b1000 =
b10 ,
b10 6
b10 :
b1011111000 (
b1011111000 4
b1011111000 8
b1111 &
b1111 7
b1111 9
b101 +
b101 /
b101 >
1!
#170
0!
#175
b1101 $
b1101 1
b1101 <
b10 %
b10 2
b10 ?
b0 '
b0 .
b0 3
b1000 +
b1000 /
b1000 >
b1 *
b1 5
b1 ;
b101 -
b101 0
b101 =
b0 ,
b0 6
b0 :
b1100000001 (
b1100000001 4
b1100000001 8
b10000 &
b10000 7
b10000 9
1!
#180
0!
#185
b1000 $
b1000 1
b1000 <
b0 %
b0 2
b0 ?
b111 '
b111 .
b111 3
b101 +
b101 /
b101 >
b0 *
b0 5
b0 ;
b1000 -
b1000 0
b1000 =
b1 ,
b1 6
b1 :
b1001110100 (
b1001110100 4
b1001110100 8
b10001 &
b10001 7
b10001 9
1!
#190
0!
#195
b1101 $
b1101 1
b1101 <
b1 %
b1 2
b1 ?
b1101 -
b1101 0
b1101 =
b10 ,
b10 6
b10 :
b1011111000 (
b1011111000 4
b1011111000 8
b10010 &
b10010 7
b10010 9
b1000 +
b1000 /
b1000 >
1!
#200
0!
#205
b10101 $
b10101 1
b10101 <
b10 %
b10 2
b10 ?
b0 '
b0 .
b0 3
b1101 +
b1101 /
b1101 >
b1 *
b1 5
b1 ;
b1000 -
b1000 0
b1000 =
b0 ,
b0 6
b0 :
b1100000001 (
b1100000001 4
b1100000001 8
b10011 &
b10011 7
b10011 9
1!
#210
0!
#215
b1101 $
b1101 1
b1101 <
b0 %
b0 2
b0 ?
b111 '
b111 .
b111 3
b1000 +
b1000 /
b1000 >
b0 *
b0 5
b0 ;
b1101 -
b1101 0
b1101 =
b1 ,
b1 6
b1 :
b1001110100 (
b1001110100 4
b1001110100 8
b10100 &
b10100 7
b10100 9
1!
#220
0!
#225
b10101 $
b10101 1
b10101 <
b1 %
b1 2
b1 ?
b10101 -
b10101 0
b10101 =
b10 ,
b10 6
b10 :
b1011111000 (
b1011111000 4
b1011111000 8
b10101 &
b10101 7
b10101 9
b1101 +
b1101 /
b1101 >
1!
#230
0!
#235
b100010 $
b100010 1
b100010 <
b10 %
b10 2
b10 ?
b0 '
b0 .
b0 3
b10101 +
b10101 /
b10101 >
b1 *
b1 5
b1 ;
b1101 -
b1101 0
b1101 =
b0 ,
b0 6
b0 :
b1100000001 (
b1100000001 4
b1100000001 8
b10110 &
b10110 7
b10110 9
1!
#240
0!
#245
b10101 $
b10101 1
b10101 <
b0 %
b0 2
b0 ?
b111 '
b111 .
b111 3
b1101 +
b1101 /
b1101 >
b0 *
b0 5
b0 ;
b10101 -
b10101 0
b10101 =
b1 ,
b1 6
b1 :
b1001110100 (
b1001110100 4
b1001110100 8
b10111 &
b10111 7
b10111 9
1!
#250
0!
#255
b100010 $
b100010 1
b100010 <
b1 %
b1 2
b1 ?
b100010 -
b100010 0
b100010 =
b10 ,
b10 6
b10 :
b1011111000 (
b1011111000 4
b1011111000 8
b11000 &
b11000 7
b11000 9
b10101 +
b10101 /
b10101 >
1!
#260
0!
#265
b110111 $
b110111 1
b110111 <
b10 %
b10 2
b10 ?
b0 '
b0 .
b0 3
b100010 +
b100010 /
b100010 >
b1 *
b1 5
b1 ;
b10101 -
b10101 0
b10101 =
b0 ,
b0 6
b0 :
b1100000001 (
b1100000001 4
b1100000001 8
b11001 &
b11001 7
b11001 9
1!
#270
0!
#275
b100010 $
b100010 1
b100010 <
b0 %
b0 2
b0 ?
b111 '
b111 .
b111 3
b10101 +
b10101 /
b10101 >
b0 *
b0 5
b0 ;
b100010 -
b100010 0
b100010 =
b1 ,
b1 6
b1 :
b1001110100 (
b1001110100 4
b1001110100 8
b11010 &
b11010 7
b11010 9
1!
#280
0!
#285
b110111 $
b110111 1
b110111 <
b1 %
b1 2
b1 ?
b110111 -
b110111 0
b110111 =
b10 ,
b10 6
b10 :
b1011111000 (
b1011111000 4
b1011111000 8
b11011 &
b11011 7
b11011 9
b100010 +
b100010 /
b100010 >
1!
#290
0!
#295
b1011001 $
b1011001 1
b1011001 <
b10 %
b10 2
b10 ?
b0 '
b0 .
b0 3
b110111 +
b110111 /
b110111 >
b1 *
b1 5
b1 ;
b100010 -
b100010 0
b100010 =
b0 ,
b0 6
b0 :
b1100000001 (
b1100000001 4
b1100000001 8
b11100 &
b11100 7
b11100 9
1!
#300
0!
#305
b110111 $
b110111 1
b110111 <
b0 %
b0 2
b0 ?
b111 '
b111 .
b111 3
b100010 +
b100010 /
b100010 >
b0 *
b0 5
b0 ;
b110111 -
b110111 0
b110111 =
b1 ,
b1 6
b1 :
b1001110100 (
b1001110100 4
b1001110100 8
b11101 &
b11101 7
b11101 9
1!
#310
0!
#315
b1011001 $
b1011001 1
b1011001 <
b1 %
b1 2
b1 ?
b1011001 -
b1011001 0
b1011001 =
b10 ,
b10 6
b10 :
b1011111000 (
b1011111000 4
b1011111000 8
b11110 &
b11110 7
b11110 9
b110111 +
b110111 /
b110111 >
1!
#320
0!
#325
b10010000 $
b10010000 1
b10010000 <
b10 %
b10 2
b10 ?
b0 '
b0 .
b0 3
b1011001 +
b1011001 /
b1011001 >
b1 *
b1 5
b1 ;
b110111 -
b110111 0
b110111 =
b0 ,
b0 6
b0 :
b1100000001 (
b1100000001 4
b1100000001 8
b11111 &
b11111 7
b11111 9
1!
#330
0!
#335
b1101110 $
b1101110 1
b1101110 <
1)
0#
b0 %
b0 2
b0 ?
b110111 +
b110111 /
b110111 >
b0 *
b0 5
b0 ;
b10000000000 (
b10000000000 4
b10000000000 8
b100000 &
b100000 7
b100000 9
1!
